	Ph	Cond	Turbidez	Trans	Prof	P	N	Clor
C1	6.34	24.9	97.7	20	7.6	50.42	636.418	3.212
C2	6.16	35.3	75.2	27	7.5	72.39	656.851	1.050
C3	6.23	31.4	93.2	19	6.3	55.21	672.569	5.461
C4	6.06	31.9	57.1	27	7.8	40.36	573.546	7.991
C5	6.41	25.3	48.7	31	7.7	35.26	879.712	9.323
C6	5.87	22.1	63.3	23	8.7	47.63	649.971	2.730
C7	5.83	20	47.8	36	5.3	40.83	629.203	4.551
C8	5.99	23.6	24.8	57	6.8	30.62	622.713	6.826
C9	6.32	26.8	66.5	18	5.5	42.84	598.052	4.096
C10	5.9	24.7	34	45	6.5	48.72	524.067	8.133
C11	6.06	26.4	108	15	7.1	45.00	508.492	1.162
C12	5.83	25.5	83.4	17	6.6	39.90	481.234	1.365
C13	6	36.3	18.83	153	8.1	42.53	790.417	4.096
C14	5.94	32.6	20.7	81	4.8	45.16	707.795	1.365
C15	6.07	36.3	36.7	40	7.2	49.65	717.871	5.327
S1	6.4	5.68	18.00	68	3.6	13.14	280.019	0.000
S2	6.73	48.5	18.49	71	4.1	35.49	546.513	13.106
S3	6.58	42.5	16.49	70	2.5	34.17	399.835	13.106
S4	6.52	34.9	21.6	60	4.8	29.24	398.129	2.184
S5	6.54	28.8	12.93	72	3.7	26.45	333.744	6.553
S6	6.36	32.8	21	60	4.8	31.21	430.535	3.276
S7	6.01	10.36	24.2	49	1.4	29.08	398.208	8.737
S8	6.43	22.3	20.1	59	2.5	27.60	396.041	7.645
S9	6.47	32.8	12.53	71	2.3	24.97	496.184	31.672
S10	6.4	27	15.2	81	3.1	19.71	441.560	8.494
S11	6.48	40.9	36.6	31	4.5	36.64	690.401	0.000
S12	6.24	24.1	17.27	60	3.3	34.34	519.160	6.553
S13	6.3	32.6	39.4	30	4.5	48.63	601.529	9.829
S14	6.62	44.3	38.7	32	0.7	81.17	1221.896	22.935
S15	6.65	44.5	26.4	37	4	31.87	791.411	6.553
